donor,dnaID,%S-phase.veh,%∆S-phase.LiCl_0.75mM,%∆S-phase.LiCl_1.5mM,%∆S-phase.LiCl_3mM
D10,DNAID194,0.175482467,0.014904277,0.018248363,0.02845655
D101,DNAID117,0.162224074,0.003645333,0.023859988,-0.032127687
D102,DNAID123,0.12611581,0.010738835,0.025862742,0.007470509
D103,DNAID119,0.164849184,0.009406686,0.016718127,0.002465359
D104,DNAID120,0.179361616,0.012184698,0.020982813,0.010236902
D106,DNAID124,0.147542855,0.02193331,0.029825116,-0.005894271
D107,DNAID204,0.162560354,0.013756696,0.016000335,-0.045652436
D108,DNAID126,0.140425506,0.008995374,0.015132836,-0.027886665
D110,DNAID206,0.128085667,0.000988745,0.022537721,0.029552713
D111,DNAID127,0.164868608,0.009900925,0.021370847,-0.014285482
D112,DNAID131,0.154986751,0.006627632,0.012543857,-0.01546597
D113,DNAID128,0.138510538,0.010011845,0.018337029,-0.01084873
D114,DNAID129,0.109147954,0.008512219,0.02324502,0.032510291
D117,DNAID208,0.154437483,0.011856813,0.016594747,-0.033715949
D14,DNAID231,0.134398331,0.004667584,0.012014335,-0.04528252
D146,DNAID145,0.134597408,0.013210982,0.022887185,-0.016060397
D147,DNAID147,0.079865895,0.004677526,0.012091094,-0.004135669
D15,DNAID210,0.15690174,0.008647179,0.015585175,-0.004819659
D16,DNAID196,0.180894321,0.008011231,0.01742202,-0.005913405
D18,DNAID490,0.165698065,0.011927685,0.019231088,0.002029413
D19,DNAID211,0.167707859,0.004696631,0.004719428,-0.046987326
D2,DNAID01,0.104132245,0.008699288,0.021330505,0.004494559
D21,DNAID17,0.145454146,0.010193492,0.028444369,0.010386171
D215,DNAID269,0.081318383,0.002736446,0.009947583,-0.01336597
D22,DNAID492,0.116942861,0.002036632,0.011378274,-0.010600515
D221,DNAID262,0.096003878,0.011681214,0.015917082,-0.012892412
D222,DNAID263,0.08398863,0.008454717,0.018284879,-0.015146249
D242,DNAID287,0.115975705,0.015815882,0.028646598,0.023814567
D244,DNAID289,0.121049114,0.013619701,0.014855216,-0.010572637
D25,DNAID08,0.168994215,0.009330099,0.017713591,0.015418876
D28,DNAID11,0.178486738,0.011997763,0.020607779,0.013032916
D3,DNAID03,0.171397657,0.016623848,0.026861371,0.025630617
D30,DNAID13,0.152734506,0.008548125,0.011410837,-0.048048545
D308,DNAID355,0.150062345,0.018155848,0.032354968,-0.001426216
D310,DNAID357,0.145286472,0.016160791,0.021333014,0.023310034
D32,DNAID15,0.231542051,0.01041228,0.022619909,0.010227941
D321,DNAID367,0.16552781,0.009734804,0.029446136,0.000865483
D34,DNAID16,0.220707234,0.010821312,0.023642518,-0.002194193
D35,DNAID21,0.125919689,0.007892372,0.009661872,-0.005396481
D36,DNAID22,0.176800521,0.024438587,0.021678162,-0.006694525
D37,DNAID23,0.169122059,0.007380507,0.019533321,0.014600107
D38,DNAID24,0.138963674,0.010594044,0.015172507,-0.006280494
D39,DNAID25,0.141950393,0.008145954,0.013031475,-0.017346745
D42,DNAID30,0.103418288,0.016425852,0.025617931,0.01606533
D46,DNAID34,0.132699436,0.012454261,0.021418028,0.029750656
D47,DNAID28,0.175317372,0.0187276,0.016034729,-0.02345771
D51,DNAID37,0.234563519,0.013326823,0.03298065,0.021426189
D52,DNAID38,0.166497633,0.00302755,0.019475868,-0.00967144
D53,DNAID39,0.205403914,0.009651788,0.014857769,-0.014002064
D54,DNAID40,0.173292766,0.008821025,0.022385305,-0.007076945
D55,DNAID42,0.187829971,0.011151391,0.023053745,-0.009741675
D56,DNAID43,0.188684799,0.009627026,0.024238022,-0.017188227
D59,DNAID44,0.170500391,0.019190771,0.013357471,-0.007431839
D6,DNAID05,0.152925651,0.009161252,0.01718829,-0.013832269
D60,DNAID45,0.158467346,0.004402437,0.023814901,0.015733307
D61,DNAID46,0.176360679,0.013685735,0.026857775,-0.064358872
D62,DNAID48,0.213652123,-0.004083251,0.015299636,0.013713593
D64,DNAID41,0.186623937,0.014687985,0.021668883,-0.01163817
D65,DNAID50,0.16816749,0.001969642,0.026649369,-0.007146945
D66,DNAID51,0.140302661,0.010705407,0.023375356,0.015827332
D7,DNAID06,0.111415657,0.013406277,0.024551322,-0.034619317
D71,DNAID56,0.139122451,0.010969063,0.018255709,0.011422582
D72,DNAID65,0.169320938,-0.000205398,0.027472359,0.002701619
D73,DNAID68,0.157632677,0.008654221,0.01966665,0.000559134
D76,DNAID59,0.188841109,0.009872186,0.019638878,0.006406503
D78,DNAID81,0.134790901,0.011160944,0.012623815,-0.018757334
D79,DNAID84,0.094443184,0.006911161,0.010653294,-0.019039478
D8,DNAID07,0.16325101,0.009331568,0.009359902,-0.012206886
D80,DNAID73,0.183104387,0.010043744,0.020116075,0.005965818
D81,DNAID74,0.151802341,0.016773235,0.021071098,-0.027994842
D82,DNAID75,0.126631599,0.008217028,0.012655703,-0.06698643
D84,DNAID77,0.200970807,0.008010723,0.030700458,-0.005198058
D85,DNAID110,0.180786831,0.010251803,0.007902113,-0.062004345
D86,DNAID111,0.184688285,0.008531827,0.020450163,-0.011180387
D88,DNAID133,0.169534032,0.010191577,0.019551806,0.000540471
D9,DNAID193,0.167761832,0.009852638,0.026166218,0.03407403
D93,DNAID104,0.172621956,0.015227239,0.018105278,-0.00151394
D94,DNAID96,0.184911967,0.016847778,0.018776042,0.014252326
D97,DNAID102,0.132788463,0.01498869,0.02467172,-0.027858735
D99,DNAID496,0.159032202,0.019078377,0.011038584,-0.034075838
